aplay



aplay -l                                               # --list-devices
aplay /dev/urandom                                     # play static
aplay -D hw:0,0 -f S32_LE -c 2 -r 48000 /dev/urandom   # --device= --format= --channels= --rate=

cat /proc/asound/card0/pcm3p/info

