transmission-remote

apt install transmission-daemon
man transmission-remote
---

transmission-remote -l                           # 

# [2020-12-28 11:49:07.227] transmission-remote:  \
# (http://localhost:9091/transmission/rpc/) Couldn't connect to server
# 



